%YAML 1.1
%TAG !u! tag:unity3d.com,2011:
--- !u!29 &1
OcclusionCullingSettings:
  m_ObjectHideFlags: 0
  serializedVersion: 2
  m_OcclusionBakeSettings:
    smallestOccluder: 5
    smallestHole: 0.25
    backfaceThreshold: 100
  m_SceneGUID: 00000000000000000000000000000000
  m_OcclusionCullingData: {fileID: 0}
--- !u!104 &2
RenderSettings:
  m_ObjectHideFlags: 0
  serializedVersion: 9
  m_Fog: 0
  m_FogColor: {r: 0.5, g: 0.5, b: 0.5, a: 1}
  m_FogMode: 3
  m_FogDensity: 0.01
  m_LinearFogStart: 0
  m_LinearFogEnd: 300
  m_AmbientSkyColor: {r: 0.212, g: 0.227, b: 0.259, a: 1}
  m_AmbientEquatorColor: {r: 0.114, g: 0.125, b: 0.133, a: 1}
  m_AmbientGroundColor: {r: 0.047, g: 0.043, b: 0.035, a: 1}
  m_AmbientIntensity: 1
  m_AmbientMode: 0
  m_SubtractiveShadowColor: {r: 0.42, g: 0.478, b: 0.627, a: 1}
  m_SkyboxMaterial: {fileID: 10304, guid: 0000000000000000f000000000000000, type: 0}
  m_HaloStrength: 0.125
  m_FlareStrength: 0.25
  m_FlareFadeSpeed: 3
  m_HaloTexture: {fileID: 0}
  m_SpotCookie: {fileID: 10001, guid: 0000000000000000e000000000000000, type: 0}
  m_DefaultReflectionMode: 0
  m_DefaultReflectionResolution: 128
  m_ReflectionBounces: 1
  m_ReflectionIntensity: 1
  m_CustomReflection: {fileID: 8900000, guid: d83e5e98eabe7d14b8248910f83f31df, type: 3}
  m_Sun: {fileID: 0}
  m_IndirectSpecularColor: {r: 0, g: 0, b: 0, a: 1}
  m_UseRadianceAmbientProbe: 0
--- !u!157 &4
LightmapSettings:
  m_ObjectHideFlags: 0
  serializedVersion: 11
  m_GIWorkflowMode: 0
  m_GISettings:
    serializedVersion: 2
    m_BounceScale: 1
    m_IndirectOutputScale: 1
    m_AlbedoBoost: 1
    m_EnvironmentLightingMode: 0
    m_EnableBakedLightmaps: 0
    m_EnableRealtimeLightmaps: 0
  m_LightmapEditorSettings:
    serializedVersion: 12
    m_Resolution: 2
    m_BakeResolution: 40
    m_AtlasSize: 1024
    m_AO: 0
    m_AOMaxDistance: 1
    m_CompAOExponent: 0
    m_CompAOExponentDirect: 0
    m_ExtractAmbientOcclusion: 0
    m_Padding: 2
    m_LightmapParameters: {fileID: 0}
    m_LightmapsBakeMode: 1
    m_TextureCompression: 1
    m_FinalGather: 0
    m_FinalGatherFiltering: 1
    m_FinalGatherRayCount: 1024
    m_ReflectionCompression: 2
    m_MixedBakeMode: 1
    m_BakeBackend: 0
    m_PVRSampling: 1
    m_PVRDirectSampleCount: 32
    m_PVRSampleCount: 512
    m_PVRBounces: 2
    m_PVREnvironmentSampleCount: 512
    m_PVREnvironmentReferencePointCount: 2048
    m_PVRFilteringMode: 0
    m_PVRDenoiserTypeDirect: 0
    m_PVRDenoiserTypeIndirect: 0
    m_PVRDenoiserTypeAO: 0
    m_PVRFilterTypeDirect: 0
    m_PVRFilterTypeIndirect: 0
    m_PVRFilterTypeAO: 0
    m_PVREnvironmentMIS: 0
    m_PVRCulling: 1
    m_PVRFilteringGaussRadiusDirect: 1
    m_PVRFilteringGaussRadiusIndirect: 5
    m_PVRFilteringGaussRadiusAO: 2
    m_PVRFilteringAtrousPositionSigmaDirect: 0.5
    m_PVRFilteringAtrousPositionSigmaIndirect: 2
    m_PVRFilteringAtrousPositionSigmaAO: 1
    m_ExportTrainingData: 0
    m_TrainingDataDestination: TrainingData
    m_LightProbeSampleCountMultiplier: 4
  m_LightingDataAsset: {fileID: 0}
  m_UseShadowmask: 0
--- !u!196 &5
NavMeshSettings:
  serializedVersion: 2
  m_ObjectHideFlags: 0
  m_BuildSettings:
    serializedVersion: 2
    agentTypeID: 0
    agentRadius: 0.5
    agentHeight: 2
    agentSlope: 45
    agentClimb: 0.4
    ledgeDropHeight: 0
    maxJumpAcrossDistance: 0
    minRegionArea: 2
    manualCellSize: 0
    cellSize: 0.16666667
    manualTileSize: 0
    tileSize: 256
    accuratePlacement: 0
    debug:
      m_Flags: 0
  m_NavMeshData: {fileID: 0}
--- !u!1 &878565864
GameObject:
  m_ObjectHideFlags: 0
  m_CorrespondingSourceObject: {fileID: 0}
  m_PrefabInstance: {fileID: 0}
  m_PrefabAsset: {fileID: 0}
  serializedVersion: 6
  m_Component:
  - component: {fileID: 878565866}
  - component: {fileID: 878565865}
  m_Layer: 0
  m_Name: Reflection Probe
  m_TagString: Untagged
  m_Icon: {fileID: 0}
  m_NavMeshLayer: 0
  m_StaticEditorFlags: 0
  m_IsActive: 0
--- !u!215 &878565865
ReflectionProbe:
  m_ObjectHideFlags: 0
  m_CorrespondingSourceObject: {fileID: 0}
  m_PrefabInstance: {fileID: 0}
  m_PrefabAsset: {fileID: 0}
  m_GameObject: {fileID: 878565864}
  m_Enabled: 1
  serializedVersion: 2
  m_Type: 0
  m_Mode: 2
  m_RefreshMode: 0
  m_TimeSlicingMode: 0
  m_Resolution: 256
  m_UpdateFrequency: 0
  m_BoxSize: {x: 1000, y: 100, z: 1000}
  m_BoxOffset: {x: 0, y: 0, z: 0}
  m_NearClip: 0.3
  m_FarClip: 1000
  m_ShadowDistance: 100
  m_ClearFlags: 1
  m_BackGroundColor: {r: 0.19215687, g: 0.3019608, b: 0.4745098, a: 0}
  m_CullingMask:
    serializedVersion: 2
    m_Bits: 4294967295
  m_IntensityMultiplier: 1
  m_BlendDistance: 1
  m_HDR: 1
  m_BoxProjection: 0
  m_RenderDynamicObjects: 0
  m_UseOcclusionCulling: 1
  m_Importance: 1
  m_CustomBakedTexture: {fileID: 8900000, guid: d83e5e98eabe7d14b8248910f83f31df,
    type: 3}
--- !u!4 &878565866
Transform:
  m_ObjectHideFlags: 0
  m_CorrespondingSourceObject: {fileID: 0}
  m_PrefabInstance: {fileID: 0}
  m_PrefabAsset: {fileID: 0}
  m_GameObject: {fileID: 878565864}
  m_LocalRotation: {x: 0, y: 0, z: 0, w: 1}
  m_LocalPosition: {x: 0, y: 1.361, z: 0}
  m_LocalScale: {x: 0.01, y: 1, z: 0.01}
  m_Children: []
  m_Father: {fileID: 1195893739}
  m_RootOrder: 2
  m_LocalEulerAnglesHint: {x: 0, y: 0, z: 0}
--- !u!4 &990611347 stripped
Transform:
  m_CorrespondingSourceObject: {fileID: 487532, guid: 0722a9e01046ddd4289c83d741ad6252,
    type: 2}
  m_PrefabInstance: {fileID: 1998307597}
  m_PrefabAsset: {fileID: 0}
--- !u!1 &1195893738
GameObject:
  m_ObjectHideFlags: 0
  m_CorrespondingSourceObject: {fileID: 0}
  m_PrefabInstance: {fileID: 0}
  m_PrefabAsset: {fileID: 0}
  serializedVersion: 6
  m_Component:
  - component: {fileID: 1195893739}
  - component: {fileID: 1195893742}
  - component: {fileID: 1195893741}
  - component: {fileID: 1195893740}
  m_Layer: 0
  m_Name: Scene Objects
  m_TagString: Untagged
  m_Icon: {fileID: 0}
  m_NavMeshLayer: 0
  m_StaticEditorFlags: 4294967294
  m_IsActive: 1
--- !u!4 &1195893739
Transform:
  m_ObjectHideFlags: 0
  m_CorrespondingSourceObject: {fileID: 0}
  m_PrefabInstance: {fileID: 0}
  m_PrefabAsset: {fileID: 0}
  m_GameObject: {fileID: 1195893738}
  m_LocalRotation: {x: 0, y: 0, z: 0, w: 1}
  m_LocalPosition: {x: 0, y: 0, z: 0}
  m_LocalScale: {x: 100, y: 1, z: 100}
  m_Children:
  - {fileID: 1582715830}
  - {fileID: 1710559162}
  - {fileID: 878565866}
  - {fileID: 2023983561}
  m_Father: {fileID: 0}
  m_RootOrder: 1
  m_LocalEulerAnglesHint: {x: 0, y: 0, z: 0}
--- !u!23 &1195893740
MeshRenderer:
  m_ObjectHideFlags: 0
  m_CorrespondingSourceObject: {fileID: 0}
  m_PrefabInstance: {fileID: 0}
  m_PrefabAsset: {fileID: 0}
  m_GameObject: {fileID: 1195893738}
  m_Enabled: 1
  m_CastShadows: 1
  m_ReceiveShadows: 1
  m_DynamicOccludee: 1
  m_MotionVectors: 1
  m_LightProbeUsage: 1
  m_ReflectionProbeUsage: 1
  m_RayTracingMode: 2
  m_RenderingLayerMask: 1
  m_RendererPriority: 0
  m_Materials:
  - {fileID: 2100000, guid: 3daa9d3919a99444fb9c089c3ae0f7ea, type: 2}
  m_StaticBatchInfo:
    firstSubMesh: 0
    subMeshCount: 0
  m_StaticBatchRoot: {fileID: 0}
  m_ProbeAnchor: {fileID: 0}
  m_LightProbeVolumeOverride: {fileID: 0}
  m_ScaleInLightmap: 1
  m_ReceiveGI: 1
  m_PreserveUVs: 1
  m_IgnoreNormalsForChartDetection: 0
  m_ImportantGI: 0
  m_StitchLightmapSeams: 1
  m_SelectedEditorRenderState: 3
  m_MinimumChartSize: 4
  m_AutoUVMaxDistance: 0.5
  m_AutoUVMaxAngle: 89
  m_LightmapParameters: {fileID: 0}
  m_SortingLayerID: 0
  m_SortingLayer: 0
  m_SortingOrder: 0
--- !u!64 &1195893741
MeshCollider:
  m_ObjectHideFlags: 0
  m_CorrespondingSourceObject: {fileID: 0}
  m_PrefabInstance: {fileID: 0}
  m_PrefabAsset: {fileID: 0}
  m_GameObject: {fileID: 1195893738}
  m_Material: {fileID: 13400000, guid: 509c1bbe5810ac84ab6aa68f6523684d, type: 2}
  m_IsTrigger: 0
  m_Enabled: 1
  serializedVersion: 4
  m_Convex: 0
  m_CookingOptions: 30
  m_Mesh: {fileID: 10209, guid: 0000000000000000e000000000000000, type: 0}
--- !u!33 &1195893742
MeshFilter:
  m_ObjectHideFlags: 0
  m_CorrespondingSourceObject: {fileID: 0}
  m_PrefabInstance: {fileID: 0}
  m_PrefabAsset: {fileID: 0}
  m_GameObject: {fileID: 1195893738}
  m_Mesh: {fileID: 10209, guid: 0000000000000000e000000000000000, type: 0}
--- !u!1001 &1382187913
PrefabInstance:
  m_ObjectHideFlags: 0
  serializedVersion: 2
  m_Modification:
    m_TransformParent: {fileID: 0}
    m_Modifications:
    - target: {fileID: 22402590, guid: 3c49455ff7757444fa4b466c3250f423, type: 3}
      propertyPath: m_AnchoredPosition.y
      value: 0
      objectReference: {fileID: 0}
    - target: {fileID: 22404164, guid: 3c49455ff7757444fa4b466c3250f423, type: 3}
      propertyPath: m_AnchoredPosition.y
      value: 0.000019073486
      objectReference: {fileID: 0}
    - target: {fileID: 22405712, guid: 3c49455ff7757444fa4b466c3250f423, type: 3}
      propertyPath: m_Pivot.x
      value: 0
      objectReference: {fileID: 0}
    - target: {fileID: 22405712, guid: 3c49455ff7757444fa4b466c3250f423, type: 3}
      propertyPath: m_Pivot.y
      value: 0
      objectReference: {fileID: 0}
    - target: {fileID: 22405712, guid: 3c49455ff7757444fa4b466c3250f423, type: 3}
      propertyPath: m_RootOrder
      value: 2
      objectReference: {fileID: 0}
    - target: {fileID: 22405712, guid: 3c49455ff7757444fa4b466c3250f423, type: 3}
      propertyPath: m_AnchorMax.x
      value: 0
      objectReference: {fileID: 0}
    - target: {fileID: 22405712, guid: 3c49455ff7757444fa4b466c3250f423, type: 3}
      propertyPath: m_AnchorMax.y
      value: 0
      objectReference: {fileID: 0}
    - target: {fileID: 22405712, guid: 3c49455ff7757444fa4b466c3250f423, type: 3}
      propertyPath: m_AnchorMin.x
      value: 0
      objectReference: {fileID: 0}
    - target: {fileID: 22405712, guid: 3c49455ff7757444fa4b466c3250f423, type: 3}
      propertyPath: m_AnchorMin.y
      value: 0
      objectReference: {fileID: 0}
    - target: {fileID: 22405712, guid: 3c49455ff7757444fa4b466c3250f423, type: 3}
      propertyPath: m_SizeDelta.x
      value: 0
      objectReference: {fileID: 0}
    - target: {fileID: 22405712, guid: 3c49455ff7757444fa4b466c3250f423, type: 3}
      propertyPath: m_SizeDelta.y
      value: 0
      objectReference: {fileID: 0}
    - target: {fileID: 22405712, guid: 3c49455ff7757444fa4b466c3250f423, type: 3}
      propertyPath: m_LocalPosition.x
      value: 0
      objectReference: {fileID: 0}
    - target: {fileID: 22405712, guid: 3c49455ff7757444fa4b466c3250f423, type: 3}
      propertyPath: m_LocalPosition.y
      value: 0
      objectReference: {fileID: 0}
    - target: {fileID: 22405712, guid: 3c49455ff7757444fa4b466c3250f423, type: 3}
      propertyPath: m_LocalPosition.z
      value: 0
      objectReference: {fileID: 0}
    - target: {fileID: 22405712, guid: 3c49455ff7757444fa4b466c3250f423, type: 3}
      propertyPath: m_LocalRotation.w
      value: 1
      objectReference: {fileID: 0}
    - target: {fileID: 22405712, guid: 3c49455ff7757444fa4b466c3250f423, type: 3}
      propertyPath: m_LocalRotation.x
      value: 0
      objectReference: {fileID: 0}
    - target: {fileID: 22405712, guid: 3c49455ff7757444fa4b466c3250f423, type: 3}
      propertyPath: m_LocalRotation.y
      value: 0
      objectReference: {fileID: 0}
    - target: {fileID: 22405712, guid: 3c49455ff7757444fa4b466c3250f423, type: 3}
      propertyPath: m_LocalRotation.z
      value: 0
      objectReference: {fileID: 0}
    - target: {fileID: 22405712, guid: 3c49455ff7757444fa4b466c3250f423, type: 3}
      propertyPath: m_AnchoredPosition.x
      value: 0
      objectReference: {fileID: 0}
    - target: {fileID: 22405712, guid: 3c49455ff7757444fa4b466c3250f423, type: 3}
      propertyPath: m_AnchoredPosition.y
      value: 0
      objectReference: {fileID: 0}
    - target: {fileID: 22433632, guid: 3c49455ff7757444fa4b466c3250f423, type: 3}
      propertyPath: m_AnchoredPosition.y
      value: 0.000019073486
      objectReference: {fileID: 0}
    - target: {fileID: 22454578, guid: 3c49455ff7757444fa4b466c3250f423, type: 3}
      propertyPath: m_AnchoredPosition.y
      value: 0.000044822693
      objectReference: {fileID: 0}
    - target: {fileID: 22463524, guid: 3c49455ff7757444fa4b466c3250f423, type: 3}
      propertyPath: m_AnchoredPosition.x
      value: 0.000030517578
      objectReference: {fileID: 0}
    - target: {fileID: 22477772, guid: 3c49455ff7757444fa4b466c3250f423, type: 3}
      propertyPath: m_AnchoredPosition.y
      value: 0.000019073486
      objectReference: {fileID: 0}
    - target: {fileID: 224000010245588974, guid: 3c49455ff7757444fa4b466c3250f423,
        type: 3}
      propertyPath: m_AnchoredPosition.x
      value: 0.000030517578
      objectReference: {fileID: 0}
    - target: {fileID: 224000010280426562, guid: 3c49455ff7757444fa4b466c3250f423,
        type: 3}
      propertyPath: m_AnchoredPosition.y
      value: 0.000044822693
      objectReference: {fileID: 0}
    - target: {fileID: 224000010293709686, guid: 3c49455ff7757444fa4b466c3250f423,
        type: 3}
      propertyPath: m_AnchoredPosition.y
      value: 0.000019073486
      objectReference: {fileID: 0}
    - target: {fileID: 224000010583521890, guid: 3c49455ff7757444fa4b466c3250f423,
        type: 3}
      propertyPath: m_AnchoredPosition.x
      value: -0.00009918213
      objectReference: {fileID: 0}
    - target: {fileID: 224000010603894222, guid: 3c49455ff7757444fa4b466c3250f423,
        type: 3}
      propertyPath: m_AnchoredPosition.y
      value: 0.000019073486
      objectReference: {fileID: 0}
    - target: {fileID: 224000010643584698, guid: 3c49455ff7757444fa4b466c3250f423,
        type: 3}
      propertyPath: m_AnchoredPosition.y
      value: 0.000019073486
      objectReference: {fileID: 0}
    - target: {fileID: 224000010715035966, guid: 3c49455ff7757444fa4b466c3250f423,
        type: 3}
      propertyPath: m_AnchoredPosition.y
      value: 0.000019073486
      objectReference: {fileID: 0}
    - target: {fileID: 224000010817147056, guid: 3c49455ff7757444fa4b466c3250f423,
        type: 3}
      propertyPath: m_AnchoredPosition.y
      value: 0
      objectReference: {fileID: 0}
    - target: {fileID: 224000011113368674, guid: 3c49455ff7757444fa4b466c3250f423,
        type: 3}
      propertyPath: m_AnchoredPosition.y
      value: 0.000019073486
      objectReference: {fileID: 0}
    - target: {fileID: 224000011174469086, guid: 3c49455ff7757444fa4b466c3250f423,
        type: 3}
      propertyPath: m_AnchoredPosition.y
      value: 0.000044822693
      objectReference: {fileID: 0}
    - target: {fileID: 224000011240820748, guid: 3c49455ff7757444fa4b466c3250f423,
        type: 3}
      propertyPath: m_AnchoredPosition.y
      value: 0.000044822693
      objectReference: {fileID: 0}
    - target: {fileID: 224000011278230556, guid: 3c49455ff7757444fa4b466c3250f423,
        type: 3}
      propertyPath: m_AnchoredPosition.y
      value: 0.000044822693
      objectReference: {fileID: 0}
    - target: {fileID: 224000011360473482, guid: 3c49455ff7757444fa4b466c3250f423,
        type: 3}
      propertyPath: m_AnchoredPosition.y
      value: 0.000044822693
      objectReference: {fileID: 0}
    - target: {fileID: 224000011371073796, guid: 3c49455ff7757444fa4b466c3250f423,
        type: 3}
      propertyPath: m_AnchoredPosition.y
      value: 0.000019073486
      objectReference: {fileID: 0}
    - target: {fileID: 224000011425389864, guid: 3c49455ff7757444fa4b466c3250f423,
        type: 3}
      propertyPath: m_AnchoredPosition.y
      value: 0.000019073486
      objectReference: {fileID: 0}
    - target: {fileID: 224000011619471668, guid: 3c49455ff7757444fa4b466c3250f423,
        type: 3}
      propertyPath: m_AnchoredPosition.y
      value: 0.000019073486
      objectReference: {fileID: 0}
    - target: {fileID: 224000011632565884, guid: 3c49455ff7757444fa4b466c3250f423,
        type: 3}
      propertyPath: m_AnchoredPosition.y
      value: 0.000019073486
      objectReference: {fileID: 0}
    - target: {fileID: 224000011741597000, guid: 3c49455ff7757444fa4b466c3250f423,
        type: 3}
      propertyPath: m_AnchoredPosition.y
      value: 0.000044822693
      objectReference: {fileID: 0}
    - target: {fileID: 224000011939016034, guid: 3c49455ff7757444fa4b466c3250f423,
        type: 3}
      propertyPath: m_AnchoredPosition.y
      value: 0.000019073486
      objectReference: {fileID: 0}
    - target: {fileID: 224000012089872474, guid: 3c49455ff7757444fa4b466c3250f423,
        type: 3}
      propertyPath: m_AnchoredPosition.y
      value: 0.000019073486
      objectReference: {fileID: 0}
    - target: {fileID: 224000012271538620, guid: 3c49455ff7757444fa4b466c3250f423,
        type: 3}
      propertyPath: m_AnchoredPosition.y
      value: 0.000044822693
      objectReference: {fileID: 0}
    - target: {fileID: 224000012781106268, guid: 3c49455ff7757444fa4b466c3250f423,
        type: 3}
      propertyPath: m_AnchoredPosition.y
      value: 0.000019073486
      objectReference: {fileID: 0}
    - target: {fileID: 224000012815684756, guid: 3c49455ff7757444fa4b466c3250f423,
        type: 3}
      propertyPath: m_AnchoredPosition.y
      value: 0.000019073486
      objectReference: {fileID: 0}
    - target: {fileID: 224000012841913024, guid: 3c49455ff7757444fa4b466c3250f423,
        type: 3}
      propertyPath: m_AnchoredPosition.y
      value: 0.000044822693
      objectReference: {fileID: 0}
    - target: {fileID: 224000013152216874, guid: 3c49455ff7757444fa4b466c3250f423,
        type: 3}
      propertyPath: m_AnchoredPosition.y
      value: 0.000044822693
      objectReference: {fileID: 0}
    - target: {fileID: 224000013219101900, guid: 3c49455ff7757444fa4b466c3250f423,
        type: 3}
      propertyPath: m_AnchoredPosition.y
      value: 0.000019073486
      objectReference: {fileID: 0}
    - target: {fileID: 224000013265965916, guid: 3c49455ff7757444fa4b466c3250f423,
        type: 3}
      propertyPath: m_AnchoredPosition.y
      value: 0.000019073486
      objectReference: {fileID: 0}
    - target: {fileID: 224000013313383702, guid: 3c49455ff7757444fa4b466c3250f423,
        type: 3}
      propertyPath: m_AnchoredPosition.y
      value: 0.000019073486
      objectReference: {fileID: 0}
    - target: {fileID: 224000013317210170, guid: 3c49455ff7757444fa4b466c3250f423,
        type: 3}
      propertyPath: m_AnchoredPosition.y
      value: 0.000044822693
      objectReference: {fileID: 0}
    - target: {fileID: 224000013540926530, guid: 3c49455ff7757444fa4b466c3250f423,
        type: 3}
      propertyPath: m_AnchoredPosition.y
      value: 0.000044822693
      objectReference: {fileID: 0}
    - target: {fileID: 224000013655509086, guid: 3c49455ff7757444fa4b466c3250f423,
        type: 3}
      propertyPath: m_AnchoredPosition.y
      value: 0.000019073486
      objectReference: {fileID: 0}
    - target: {fileID: 224000013860321060, guid: 3c49455ff7757444fa4b466c3250f423,
        type: 3}
      propertyPath: m_AnchoredPosition.y
      value: 0.000019073486
      objectReference: {fileID: 0}
    m_RemovedComponents: []
  m_SourcePrefab: {fileID: 100100000, guid: 3c49455ff7757444fa4b466c3250f423, type: 3}
--- !u!1001 &1502864183
PrefabInstance:
  m_ObjectHideFlags: 0
  serializedVersion: 2
  m_Modification:
    m_TransformParent: {fileID: 0}
    m_Modifications:
    - target: {fileID: 450100, guid: 9f32ea4a11500b344ae05427bdc21e05, type: 3}
      propertyPath: m_RootOrder
      value: 2
      objectReference: {fileID: 0}
    - target: {fileID: 450100, guid: 9f32ea4a11500b344ae05427bdc21e05, type: 3}
      propertyPath: m_LocalPosition.x
      value: 0
      objectReference: {fileID: 0}
    - target: {fileID: 450100, guid: 9f32ea4a11500b344ae05427bdc21e05, type: 3}
      propertyPath: m_LocalPosition.y
      value: 3
      objectReference: {fileID: 0}
    - target: {fileID: 450100, guid: 9f32ea4a11500b344ae05427bdc21e05, type: 3}
      propertyPath: m_LocalPosition.z
      value: 0
      objectReference: {fileID: 0}
    - target: {fileID: 450100, guid: 9f32ea4a11500b344ae05427bdc21e05, type: 3}
      propertyPath: m_LocalRotation.w
      value: 1
      objectReference: {fileID: 0}
    - target: {fileID: 450100, guid: 9f32ea4a11500b344ae05427bdc21e05, type: 3}
      propertyPath: m_LocalRotation.x
      value: 0
      objectReference: {fileID: 0}
    - target: {fileID: 450100, guid: 9f32ea4a11500b344ae05427bdc21e05, type: 3}
      propertyPath: m_LocalRotation.y
      value: 0
      objectReference: {fileID: 0}
    - target: {fileID: 450100, guid: 9f32ea4a11500b344ae05427bdc21e05, type: 3}
      propertyPath: m_LocalRotation.z
      value: 0
      objectReference: {fileID: 0}
    - target: {fileID: 11400656, guid: 9f32ea4a11500b344ae05427bdc21e05, type: 3}
      propertyPath: playerCar
      value: 
      objectReference: {fileID: 990611347}
    - target: {fileID: 11400656, guid: 9f32ea4a11500b344ae05427bdc21e05, type: 3}
      propertyPath: useFixedCameraMode
      value: 1
      objectReference: {fileID: 0}
    m_RemovedComponents: []
  m_SourcePrefab: {fileID: 100100000, guid: 9f32ea4a11500b344ae05427bdc21e05, type: 3}
--- !u!1 &1582715829
GameObject:
  m_ObjectHideFlags: 0
  m_CorrespondingSourceObject: {fileID: 0}
  m_PrefabInstance: {fileID: 0}
  m_PrefabAsset: {fileID: 0}
  serializedVersion: 6
  m_Component:
  - component: {fileID: 1582715830}
  - component: {fileID: 1582715832}
  - component: {fileID: 1582715831}
  m_Layer: 0
  m_Name: World Colliders
  m_TagString: Untagged
  m_Icon: {fileID: 0}
  m_NavMeshLayer: 0
  m_StaticEditorFlags: 4294967294
  m_IsActive: 1
--- !u!4 &1582715830
Transform:
  m_ObjectHideFlags: 0
  m_CorrespondingSourceObject: {fileID: 0}
  m_PrefabInstance: {fileID: 0}
  m_PrefabAsset: {fileID: 0}
  m_GameObject: {fileID: 1582715829}
  m_LocalRotation: {x: 0, y: 0, z: 0, w: 1}
  m_LocalPosition: {x: 0, y: 0, z: 0}
  m_LocalScale: {x: 1, y: 1, z: 1}
  m_Children: []
  m_Father: {fileID: 1195893739}
  m_RootOrder: 0
  m_LocalEulerAnglesHint: {x: 0, y: 0, z: 0}
--- !u!65 &1582715831
BoxCollider:
  m_ObjectHideFlags: 0
  m_CorrespondingSourceObject: {fileID: 0}
  m_PrefabInstance: {fileID: 0}
  m_PrefabAsset: {fileID: 0}
  m_GameObject: {fileID: 1582715829}
  m_Material: {fileID: 13400000, guid: ef7b4e97c58befe4697c8a94f2931de0, type: 2}
  m_IsTrigger: 0
  m_Enabled: 1
  serializedVersion: 2
  m_Size: {x: 0.1, y: 100, z: 10}
  m_Center: {x: -5, y: 50, z: 0}
--- !u!65 &1582715832
BoxCollider:
  m_ObjectHideFlags: 0
  m_CorrespondingSourceObject: {fileID: 0}
  m_PrefabInstance: {fileID: 0}
  m_PrefabAsset: {fileID: 0}
  m_GameObject: {fileID: 1582715829}
  m_Material: {fileID: 13400000, guid: ef7b4e97c58befe4697c8a94f2931de0, type: 2}
  m_IsTrigger: 0
  m_Enabled: 1
  serializedVersion: 2
  m_Size: {x: 0.1, y: 100, z: 10}
  m_Center: {x: 5, y: 50, z: 0}
--- !u!1 &1662520087
GameObject:
  m_ObjectHideFlags: 0
  m_CorrespondingSourceObject: {fileID: 0}
  m_PrefabInstance: {fileID: 0}
  m_PrefabAsset: {fileID: 0}
  serializedVersion: 6
  m_Component:
  - component: {fileID: 1662520089}
  - component: {fileID: 1662520088}
  m_Layer: 0
  m_Name: Cinematic Camera System
  m_TagString: Untagged
  m_Icon: {fileID: 2974397684917235467, guid: 0000000000000000d000000000000000, type: 0}
  m_NavMeshLayer: 0
  m_StaticEditorFlags: 0
  m_IsActive: 1
--- !u!114 &1662520088
MonoBehaviour:
  m_ObjectHideFlags: 0
  m_CorrespondingSourceObject: {fileID: 0}
  m_PrefabInstance: {fileID: 0}
  m_PrefabAsset: {fileID: 0}
  m_GameObject: {fileID: 1662520087}
  m_Enabled: 1
  m_EditorHideFlags: 0
  m_Script: {fileID: 11500000, guid: b3114d680cf22e54da110807ceaeebe6, type: 3}
  m_Name: 
  m_EditorClassIdentifier: 
  pivot: {fileID: 2006366798}
  targetFOV: 60
--- !u!4 &1662520089
Transform:
  m_ObjectHideFlags: 0
  m_CorrespondingSourceObject: {fileID: 0}
  m_PrefabInstance: {fileID: 0}
  m_PrefabAsset: {fileID: 0}
  m_GameObject: {fileID: 1662520087}
  m_LocalRotation: {x: 0, y: 0, z: 0, w: 1}
  m_LocalPosition: {x: 0, y: 0, z: 0}
  m_LocalScale: {x: 1, y: 1, z: 1}
  m_Children:
  - {fileID: 2006366802}
  m_Father: {fileID: 0}
  m_RootOrder: 5
  m_LocalEulerAnglesHint: {x: 0, y: -90, z: 0}
--- !u!1 &1710559159
GameObject:
  m_ObjectHideFlags: 0
  m_CorrespondingSourceObject: {fileID: 0}
  m_PrefabInstance: {fileID: 0}
  m_PrefabAsset: {fileID: 0}
  serializedVersion: 6
  m_Component:
  - component: {fileID: 1710559162}
  - component: {fileID: 1710559161}
  - component: {fileID: 1710559160}
  m_Layer: 0
  m_Name: World Colliders
  m_TagString: Untagged
  m_Icon: {fileID: 0}
  m_NavMeshLayer: 0
  m_StaticEditorFlags: 4294967294
  m_IsActive: 1
--- !u!65 &1710559160
BoxCollider:
  m_ObjectHideFlags: 0
  m_CorrespondingSourceObject: {fileID: 0}
  m_PrefabInstance: {fileID: 0}
  m_PrefabAsset: {fileID: 0}
  m_GameObject: {fileID: 1710559159}
  m_Material: {fileID: 13400000, guid: ef7b4e97c58befe4697c8a94f2931de0, type: 2}
  m_IsTrigger: 0
  m_Enabled: 1
  serializedVersion: 2
  m_Size: {x: 0.1, y: 100, z: 10}
  m_Center: {x: -5, y: 50, z: 0}
--- !u!65 &1710559161
BoxCollider:
  m_ObjectHideFlags: 0
  m_CorrespondingSourceObject: {fileID: 0}
  m_PrefabInstance: {fileID: 0}
  m_PrefabAsset: {fileID: 0}
  m_GameObject: {fileID: 1710559159}
  m_Material: {fileID: 13400000, guid: ef7b4e97c58befe4697c8a94f2931de0, type: 2}
  m_IsTrigger: 0
  m_Enabled: 1
  serializedVersion: 2
  m_Size: {x: 0.1, y: 100, z: 10}
  m_Center: {x: 5, y: 50, z: 0}
--- !u!4 &1710559162
Transform:
  m_ObjectHideFlags: 0
  m_CorrespondingSourceObject: {fileID: 0}
  m_PrefabInstance: {fileID: 0}
  m_PrefabAsset: {fileID: 0}
  m_GameObject: {fileID: 1710559159}
  m_LocalRotation: {x: 0, y: 0.70710665, z: 0, w: 0.70710695}
  m_LocalPosition: {x: 0, y: 0, z: 0}
  m_LocalScale: {x: 1, y: 1, z: 1}
  m_Children: []
  m_Father: {fileID: 1195893739}
  m_RootOrder: 1
  m_LocalEulerAnglesHint: {x: 0, y: 90, z: 0}
--- !u!1 &1960040805
GameObject:
  m_ObjectHideFlags: 0
  m_CorrespondingSourceObject: {fileID: 0}
  m_PrefabInstance: {fileID: 0}
  m_PrefabAsset: {fileID: 0}
  serializedVersion: 6
  m_Component:
  - component: {fileID: 1960040807}
  - component: {fileID: 1960040806}
  m_Layer: 0
  m_Name: RCC_FixedCamera
  m_TagString: Untagged
  m_Icon: {fileID: 2974397684917235467, guid: 0000000000000000d000000000000000, type: 0}
  m_NavMeshLayer: 0
  m_StaticEditorFlags: 0
  m_IsActive: 1
--- !u!114 &1960040806
MonoBehaviour:
  m_ObjectHideFlags: 0
  m_CorrespondingSourceObject: {fileID: 0}
  m_PrefabInstance: {fileID: 0}
  m_PrefabAsset: {fileID: 0}
  m_GameObject: {fileID: 1960040805}
  m_Enabled: 1
  m_EditorHideFlags: 0
  m_Script: {fileID: 11500000, guid: 329bfd12784c4c24f834463bc2995114, type: 3}
  m_Name: 
  m_EditorClassIdentifier: 
  currentCar: {fileID: 0}
  maxDistance: 50
  minimumFOV: 20
  maximumFOV: 60
  canTrackNow: 0
  updateInSeconds: 0.05
--- !u!4 &1960040807
Transform:
  m_ObjectHideFlags: 0
  m_CorrespondingSourceObject: {fileID: 0}
  m_PrefabInstance: {fileID: 0}
  m_PrefabAsset: {fileID: 0}
  m_GameObject: {fileID: 1960040805}
  m_LocalRotation: {x: 0, y: 0, z: 0, w: 1}
  m_LocalPosition: {x: 0, y: 0, z: 0}
  m_LocalScale: {x: 1, y: 1, z: 1}
  m_Children: []
  m_Father: {fileID: 0}
  m_RootOrder: 4
  m_LocalEulerAnglesHint: {x: 0, y: 0, z: 0}
--- !u!1001 &1998307597
PrefabInstance:
  m_ObjectHideFlags: 0
  serializedVersion: 2
  m_Modification:
    m_TransformParent: {fileID: 0}
    m_Modifications:
    - target: {fileID: 487532, guid: 0722a9e01046ddd4289c83d741ad6252, type: 2}
      propertyPath: m_RootOrder
      value: 3
      objectReference: {fileID: 0}
    - target: {fileID: 487532, guid: 0722a9e01046ddd4289c83d741ad6252, type: 2}
      propertyPath: m_LocalPosition.x
      value: 0
      objectReference: {fileID: 0}
    - target: {fileID: 487532, guid: 0722a9e01046ddd4289c83d741ad6252, type: 2}
      propertyPath: m_LocalPosition.y
      value: 1.17
      objectReference: {fileID: 0}
    - target: {fileID: 487532, guid: 0722a9e01046ddd4289c83d741ad6252, type: 2}
      propertyPath: m_LocalPosition.z
      value: 6.43
      objectReference: {fileID: 0}
    - target: {fileID: 487532, guid: 0722a9e01046ddd4289c83d741ad6252, type: 2}
      propertyPath: m_LocalRotation.w
      value: 1
      objectReference: {fileID: 0}
    - target: {fileID: 487532, guid: 0722a9e01046ddd4289c83d741ad6252, type: 2}
      propertyPath: m_LocalRotation.x
      value: 0
      objectReference: {fileID: 0}
    - target: {fileID: 487532, guid: 0722a9e01046ddd4289c83d741ad6252, type: 2}
      propertyPath: m_LocalRotation.y
      value: 0
      objectReference: {fileID: 0}
    - target: {fileID: 487532, guid: 0722a9e01046ddd4289c83d741ad6252, type: 2}
      propertyPath: m_LocalRotation.z
      value: 0
      objectReference: {fileID: 0}
    - target: {fileID: 15375390, guid: 0722a9e01046ddd4289c83d741ad6252, type: 2}
      propertyPath: m_ConnectedAnchor.x
      value: -0.34049034
      objectReference: {fileID: 0}
    - target: {fileID: 15375390, guid: 0722a9e01046ddd4289c83d741ad6252, type: 2}
      propertyPath: m_ConnectedAnchor.y
      value: 0.4139353
      objectReference: {fileID: 0}
    - target: {fileID: 15375390, guid: 0722a9e01046ddd4289c83d741ad6252, type: 2}
      propertyPath: m_ConnectedAnchor.z
      value: 0.6922407
      objectReference: {fileID: 0}
    m_RemovedComponents: []
  m_SourcePrefab: {fileID: 100100000, guid: 0722a9e01046ddd4289c83d741ad6252, type: 2}
--- !u!1 &2006366798
GameObject:
  m_ObjectHideFlags: 0
  m_CorrespondingSourceObject: {fileID: 0}
  m_PrefabInstance: {fileID: 0}
  m_PrefabAsset: {fileID: 0}
  serializedVersion: 6
  m_Component:
  - component: {fileID: 2006366802}
  - component: {fileID: 2006366801}
  - component: {fileID: 2006366800}
  - component: {fileID: 2006366799}
  m_Layer: 0
  m_Name: Animation
  m_TagString: Untagged
  m_Icon: {fileID: 0}
  m_NavMeshLayer: 0
  m_StaticEditorFlags: 0
  m_IsActive: 1
--- !u!114 &2006366799
MonoBehaviour:
  m_ObjectHideFlags: 0
  m_CorrespondingSourceObject: {fileID: 0}
  m_PrefabInstance: {fileID: 0}
  m_PrefabAsset: {fileID: 0}
  m_GameObject: {fileID: 2006366798}
  m_Enabled: 1
  m_EditorHideFlags: 0
  m_Script: {fileID: 11500000, guid: df78f1d5dd5160441ab435e4fcc6981b, type: 3}
  m_Name: 
  m_EditorClassIdentifier: 
  FOV: 30
--- !u!95 &2006366800
Animator:
  serializedVersion: 3
  m_ObjectHideFlags: 0
  m_CorrespondingSourceObject: {fileID: 0}
  m_PrefabInstance: {fileID: 0}
  m_PrefabAsset: {fileID: 0}
  m_GameObject: {fileID: 2006366798}
  m_Enabled: 1
  m_Avatar: {fileID: 0}
  m_Controller: {fileID: 9100000, guid: 95b213d1d1cba9241a3c08c9732db7de, type: 2}
  m_CullingMode: 0
  m_UpdateMode: 0
  m_ApplyRootMotion: 0
  m_LinearVelocityBlending: 0
  m_WarningMessage: 
  m_HasTransformHierarchy: 1
  m_AllowConstantClipSamplingOptimization: 1
  m_KeepAnimatorControllerStateOnDisable: 0
--- !u!20 &2006366801
Camera:
  m_ObjectHideFlags: 0
  m_CorrespondingSourceObject: {fileID: 0}
  m_PrefabInstance: {fileID: 0}
  m_PrefabAsset: {fileID: 0}
  m_GameObject: {fileID: 2006366798}
  m_Enabled: 0
  serializedVersion: 2
  m_ClearFlags: 1
  m_BackGroundColor: {r: 0.19215687, g: 0.3019608, b: 0.4745098, a: 0}
  m_projectionMatrixMode: 1
  m_GateFitMode: 2
  m_FOVAxisMode: 0
  m_SensorSize: {x: 36, y: 24}
  m_LensShift: {x: 0, y: 0}
  m_FocalLength: 50
  m_NormalizedViewPortRect:
    serializedVersion: 2
    x: 0
    y: 0
    width: 1
    height: 1
  near clip plane: 0.3
  far clip plane: 1000
  field of view: 60
  orthographic: 0
  orthographic size: 5
  m_Depth: 0
  m_CullingMask:
    serializedVersion: 2
    m_Bits: 4294967295
  m_RenderingPath: -1
  m_TargetTexture: {fileID: 0}
  m_TargetDisplay: 0
  m_TargetEye: 3
  m_HDR: 0
  m_AllowMSAA: 1
  m_AllowDynamicResolution: 0
  m_ForceIntoRT: 0
  m_OcclusionCulling: 1
  m_StereoConvergence: 10
  m_StereoSeparation: 0.022
--- !u!4 &2006366802
Transform:
  m_ObjectHideFlags: 0
  m_CorrespondingSourceObject: {fileID: 0}
  m_PrefabInstance: {fileID: 0}
  m_PrefabAsset: {fileID: 0}
  m_GameObject: {fileID: 2006366798}
  m_LocalRotation: {x: 0, y: 0, z: 0, w: 1}
  m_LocalPosition: {x: 0, y: 0, z: 0}
  m_LocalScale: {x: 1.0000005, y: 1, z: 1.0000005}
  m_Children: []
  m_Father: {fileID: 1662520089}
  m_RootOrder: 0
  m_LocalEulerAnglesHint: {x: 0.0006361403, y: 168.20808, z: -10}
--- !u!1 &2023983559
GameObject:
  m_ObjectHideFlags: 0
  m_CorrespondingSourceObject: {fileID: 0}
  m_PrefabInstance: {fileID: 0}
  m_PrefabAsset: {fileID: 0}
  serializedVersion: 6
  m_Component:
  - component: {fileID: 2023983561}
  - component: {fileID: 2023983560}
  m_Layer: 0
  m_Name: Directional Light
  m_TagString: Untagged
  m_Icon: {fileID: 0}
  m_NavMeshLayer: 0
  m_StaticEditorFlags: 0
  m_IsActive: 1
--- !u!108 &2023983560
Light:
  m_ObjectHideFlags: 0
  m_CorrespondingSourceObject: {fileID: 0}
  m_PrefabInstance: {fileID: 0}
  m_PrefabAsset: {fileID: 0}
  m_GameObject: {fileID: 2023983559}
  m_Enabled: 1
  serializedVersion: 10
  m_Type: 1
  m_Shape: 0
  m_Color: {r: 1, g: 0.95686275, b: 0.8392157, a: 1}
  m_Intensity: 1
  m_Range: 10
  m_SpotAngle: 30
  m_InnerSpotAngle: 21.80208
  m_CookieSize: 10
  m_Shadows:
    m_Type: 0
    m_Resolution: -1
    m_CustomResolution: -1
    m_Strength: 1
    m_Bias: 0.05
    m_NormalBias: 0.4
    m_NearPlane: 0.2
    m_CullingMatrixOverride:
      e00: 1
      e01: 0
      e02: 0
      e03: 0
      e10: 0
      e11: 1
      e12: 0
      e13: 0
      e20: 0
      e21: 0
      e22: 1
      e23: 0
      e30: 0
      e31: 0
      e32: 0
      e33: 1
    m_UseCullingMatrixOverride: 0
  m_Cookie: {fileID: 0}
  m_DrawHalo: 0
  m_Flare: {fileID: 12100000, guid: 54fbbf098d116effa00081aba8ad6659, type: 2}
  m_RenderMode: 0
  m_CullingMask:
    serializedVersion: 2
    m_Bits: 4294967295
  m_RenderingLayerMask: 1
  m_Lightmapping: 4
  m_LightShadowCasterMode: 0
  m_AreaSize: {x: 1, y: 1}
  m_BounceIntensity: 1
  m_ColorTemperature: 6570
  m_UseColorTemperature: 0
  m_BoundingSphereOverride: {x: 0, y: 0, z: 0, w: 0}
  m_UseBoundingSphereOverride: 0
  m_ShadowRadius: 0
  m_ShadowAngle: 0
--- !u!4 &2023983561
Transform:
  m_ObjectHideFlags: 0
  m_CorrespondingSourceObject: {fileID: 0}
  m_PrefabInstance: {fileID: 0}
  m_PrefabAsset: {fileID: 0}
  m_GameObject: {fileID: 2023983559}
  m_LocalRotation: {x: 0.40821794, y: -0.23456973, z: 0.109381676, w: 0.87542605}
  m_LocalPosition: {x: 0, y: 1000, z: 0}
  m_LocalScale: {x: 0.01, y: 0.41904402, z: 0.590956}
  m_Children: []
  m_Father: {fileID: 1195893739}
  m_RootOrder: 3
  m_LocalEulerAnglesHint: {x: 50, y: -30, z: 0}
